[
  {
    "id": "client-a-tkr",
    "clone": "mr-tkr",
    "title": "Client A: Total Knee Arthroplasty",
    "invitable": true,
    "keyValues": {
      "client": "client-a",
      "joint": "knee"
    }
  },
  {
    "id": "client-a-thr",
    "clone": "mr-thr",
    "title": "Client A: Total Hip Arthroplasty",
    "invitable": true,
    "keyValues": {
      "client": "client-a",
      "joint": "hip"
    }
  },
  {
    "id": "mr-op",
    "title": "Base operation",
    "invitable": false,
    "keyValues": {}
  },
  {
    "id": "mr-tkr",
    "clone": "mr-op",
    "title": "Total Knee Arthroplasty",
    "invitable": true,
    "keyValues": {
      "joint": "knee"
    }
  },
  {
    "id": "mr-thr",
    "clone": "mr-op",
    "title": "Total Hip Arthroplasty",
    "invitable": true,
    "keyValues": {
      "joint": "hip"
    }
  },
  {
    "id": "client-b-pkr",
    "clone": "client-b-tkr",
    "title": "Client B: Partial Knee Arthroplasty",
    "invitable": true,
    "keyValues": {
      "client": "client-b",
      "joint": "knee",
      "partial": true
    }
  },
  {
    "id": "client-b-tkr",
    "clone": "mr-tkr",
    "title": "Client B: Total Knee Arthroplasty",
    "invitable": true,
    "keyValues": {
      "client": "client-b",
      "joint": "knee"
    }
  },
  {
    "id": "client-b-thr",
    "clone": "mr-thr",
    "title": "Client B: Total Hip Arthroplasty",
    "invitable": true,
    "keyValues": {
      "client": "client-b",
      "joint": "hip"
    }
  }
]